<?xml version="1.0" encoding="UTF-8" standalone="no"?>
<!-- Created with Inkscape (http://www.inkscape.org/) -->

<svg
   xmlns:dc="http://purl.org/dc/elements/1.1/"
   xmlns:cc="http://creativecommons.org/ns#"
   xmlns:rdf="http://www.w3.org/1999/02/22-rdf-syntax-ns#"
   xmlns:svg="http://www.w3.org/2000/svg"
   xmlns="http://www.w3.org/2000/svg"
   xmlns:sodipodi="http://sodipodi.sourceforge.net/DTD/sodipodi-0.dtd"
   xmlns:inkscape="http://www.inkscape.org/namespaces/inkscape"
   width="818.96899"
   height="548.96899"
   viewBox="0 0 818.96899 548.96893"
   id="svg2"
   version="1.1"
   inkscape:version="0.91 r13725"
   sodipodi:docname="bank.svg">
  <defs
     id="defs4" />
  <sodipodi:namedview
     id="base"
     pagecolor="#ffffff"
     bordercolor="#3bff48"
     borderopacity="1"
     inkscape:pageopacity="0"
     inkscape:pageshadow="2"
     inkscape:zoom="0.32491559"
     inkscape:cx="72.681744"
     inkscape:cy="445.6235"
     inkscape:document-units="in"
     inkscape:current-layer="g4158"
     showgrid="true"
     units="px"
     inkscape:showpageshadow="false"
     showguides="false"
     inkscape:window-width="1280"
     inkscape:window-height="657"
     inkscape:window-x="-8"
     inkscape:window-y="-8"
     inkscape:window-maximized="1"
     objecttolerance="10000"
     inkscape:snap-bbox="true"
     guidetolerance="10000"
     inkscape:object-nodes="true"
     inkscape:snap-nodes="false"
     inkscape:bbox-paths="true"
     inkscape:bbox-nodes="true"
     inkscape:snap-bbox-midpoints="false"
     inkscape:snap-others="false"
     fit-margin-top="0"
     fit-margin-left="0"
     fit-margin-right="0"
     fit-margin-bottom="0"
     inkscape:snap-grids="false"
     inkscape:snap-global="true"
     inkscape:snap-page="true"
     borderlayer="true"
     showborder="true">
    <inkscape:grid
       type="xygrid"
       id="grid3338"
       spacingx="90"
       spacingy="90"
       empspacing="1"
       originx="4.4847355"
       originy="274.48493" />
  </sodipodi:namedview>
  <metadata
     id="metadata7">
    <rdf:RDF>
      <cc:Work
         rdf:about="">
        <dc:format>image/svg+xml</dc:format>
        <dc:type
           rdf:resource="http://purl.org/dc/dcmitype/StillImage" />
        <dc:title></dc:title>
      </cc:Work>
    </rdf:RDF>
  </metadata>
  <g
     inkscape:label="Layer 1"
     inkscape:groupmode="layer"
     id="layer1"
     transform="translate(4.4847355,-777.87806)">
    <g
       id="g4158"
       transform="matrix(2,0,0,2,-1800,-1412.3623)">
      <g
         id="g4546"
         transform="matrix(1.7904799,0,0,1.1122383,987.19986,-333.31297)"
         style="fill:#b3b3b3" />
      <rect
         style="fill:#dfdfdf;fill-opacity:1;stroke:#000000;stroke-width:8.10000038;stroke-linecap:round;stroke-linejoin:miter;stroke-miterlimit:4;stroke-dasharray:none;stroke-opacity:1"
         id="rect4183-8-5-9-3-6-3-7-5-6-1-7-1-1-3-9-7"
         width="131.38451"
         height="131.38451"
         x="1099.1702"
         y="-1033.1921"
         transform="matrix(0,1,-1,0,0,0)" />
      <rect
         style="fill:#dfdfdf;fill-opacity:1;stroke:#000000;stroke-width:8.10000038;stroke-linecap:round;stroke-linejoin:miter;stroke-miterlimit:4;stroke-dasharray:none;stroke-opacity:1"
         id="rect4183-8-5-9-3-6-3-7-5-6-1-7-1-1-3-9-7-1"
         width="131.38451"
         height="131.38451"
         x="1099.1702"
         y="-1168.1921"
         transform="matrix(0,1,-1,0,0,0)" />
      <rect
         style="fill:#dfdfdf;fill-opacity:1;stroke:#000000;stroke-width:8.10000038;stroke-linecap:round;stroke-linejoin:miter;stroke-miterlimit:4;stroke-dasharray:none;stroke-opacity:1"
         id="rect4183-8-5-9-3-6-3-7-5-6-1-7-1-1-3-9-7-6"
         width="131.38451"
         height="131.38451"
         x="1234.1702"
         y="-1168.1921"
         transform="matrix(0,1,-1,0,0,0)" />
      <rect
         style="fill:#dfdfdf;fill-opacity:1;stroke:#000000;stroke-width:8.10000038;stroke-linecap:round;stroke-linejoin:miter;stroke-miterlimit:4;stroke-dasharray:none;stroke-opacity:1"
         id="rect4183-8-5-9-3-6-3-7-5-6-1-7-1-1-3-9-7-4"
         width="131.38451"
         height="131.38451"
         x="1099.1702"
         y="-1303.1921"
         transform="matrix(0,1,-1,0,-3.3378601e-6,3.3378601e-6)" />
      <rect
         style="fill:#dfdfdf;fill-opacity:1;stroke:#000000;stroke-width:8.10000038;stroke-linecap:round;stroke-linejoin:miter;stroke-miterlimit:4;stroke-dasharray:none;stroke-opacity:1"
         id="rect4183-8-5-9-3-6-3-7-5-6-1-7-1-1-3-9-7-6-5"
         width="131.38451"
         height="131.38451"
         x="1234.1702"
         y="-1303.1921"
         transform="matrix(0,1,-1,0,0,0)" />
      <rect
         style="fill:#dfdfdf;fill-opacity:1;stroke:#000000;stroke-width:8.10000038;stroke-linecap:round;stroke-linejoin:miter;stroke-miterlimit:4;stroke-dasharray:none;stroke-opacity:1"
         id="rect4183-8-5-9-3-6-3-7-5-6-1-7-1-1-3-9-7-6-5-2"
         width="131.38451"
         height="131.38451"
         x="1234.1702"
         y="-1033.1921"
         transform="matrix(0,1,-1,0,0,0)" />
    </g>
  </g>
</svg>
