<?xml version="1.0" encoding="UTF-8" standalone="no"?>
<!-- Generator: Adobe Illustrator 16.0.0, SVG Export Plug-In . SVG Version: 6.00 Build 0)  -->

<svg
   xmlns:dc="http://purl.org/dc/elements/1.1/"
   xmlns:cc="http://creativecommons.org/ns#"
   xmlns:rdf="http://www.w3.org/1999/02/22-rdf-syntax-ns#"
   xmlns:svg="http://www.w3.org/2000/svg"
   xmlns="http://www.w3.org/2000/svg"
   xmlns:sodipodi="http://sodipodi.sourceforge.net/DTD/sodipodi-0.dtd"
   xmlns:inkscape="http://www.inkscape.org/namespaces/inkscape"
   version="1.1"
   id="Layer_1"
   x="0px"
   y="0px"
   width="44.995377"
   height="50"
   viewBox="0 0 44.995378 49.999999"
   enable-background="new 0 0 54 54"
   xml:space="preserve"
   inkscape:version="0.91 r13725"
   sodipodi:docname="merchant.svg"><metadata
     id="metadata435"><rdf:RDF><cc:Work
         rdf:about=""><dc:format>image/svg+xml</dc:format><dc:type
           rdf:resource="http://purl.org/dc/dcmitype/StillImage" /><dc:title></dc:title></cc:Work></rdf:RDF></metadata><defs
     id="defs433" /><sodipodi:namedview
     pagecolor="#ffffff"
     bordercolor="#666666"
     borderopacity="1"
     objecttolerance="10"
     gridtolerance="10"
     guidetolerance="10"
     inkscape:pageopacity="0"
     inkscape:pageshadow="2"
     inkscape:window-width="1918"
     inkscape:window-height="1060"
     id="namedview431"
     showgrid="false"
     fit-margin-top="0"
     fit-margin-left="0"
     fit-margin-right="0"
     fit-margin-bottom="0"
     inkscape:zoom="17.018519"
     inkscape:cx="18"
     inkscape:cy="20.001003"
     inkscape:window-x="3840"
     inkscape:window-y="36"
     inkscape:window-maximized="0"
     inkscape:current-layer="Layer_1" /><path
     d="m 22.509562,36.579756 c 2.074844,3.570983 5.355848,9.688024 7.271954,13.418994 5.179612,0 8.880584,0 14.410169,0.0012 C 44.061696,42.678049 36.661,31.805115 34.104942,25.586831 36.573507,23.084519 43.740469,24.053195 44.995376,20.330974 44.026698,13.217759 35.191111,12.770293 28.887834,11.030423 29.092818,3.812214 26.426768,0.118741 22.508312,0 l -0.0225,0 C 18.564855,0.118741 15.897555,3.812214 16.10629,11.030423 9.8030147,12.770293 0.96617748,13.217759 0,20.330974 1.252406,24.054445 8.4231183,23.084519 10.889183,25.586831 8.3343749,31.806365 0.93243006,42.678049 0.80368973,50 6.3320251,49.99875 10.032998,49.99875 15.210109,49.99875 c 1.916107,-3.73097 5.19961,-9.848011 7.276955,-13.418994 l 0.0225,0 z"
     id="path5"
     style="fill:#000000;stroke:none;stroke-width:0.5;stroke-linecap:round;stroke-linejoin:round"
     inkscape:connector-curvature="0" /><g
     id="g409"
     transform="translate(-9,2.999)" /></svg>