<?xml version="1.0" encoding="UTF-8" standalone="no"?>
<!-- Created with Inkscape (http://www.inkscape.org/) -->

<svg
   xmlns:dc="http://purl.org/dc/elements/1.1/"
   xmlns:cc="http://creativecommons.org/ns#"
   xmlns:rdf="http://www.w3.org/1999/02/22-rdf-syntax-ns#"
   xmlns:svg="http://www.w3.org/2000/svg"
   xmlns="http://www.w3.org/2000/svg"
   xmlns:sodipodi="http://sodipodi.sourceforge.net/DTD/sodipodi-0.dtd"
   xmlns:inkscape="http://www.inkscape.org/namespaces/inkscape"
   width="1.6666667in"
   height="1.6666669in"
   viewBox="0 0 150.00001 150.00002"
   id="svg2"
   version="1.1"
   inkscape:version="0.91 r13725"
   sodipodi:docname="5.svg">
  <defs
     id="defs4" />
  <sodipodi:namedview
     id="base"
     pagecolor="#ffffff"
     bordercolor="#666666"
     borderopacity="1.0"
     inkscape:pageopacity="0.0"
     inkscape:pageshadow="2"
     inkscape:zoom="6.1266659"
     inkscape:cx="50.680088"
     inkscape:cy="75.000009"
     inkscape:document-units="in"
     inkscape:current-layer="text4137"
     showgrid="true"
     units="in"
     inkscape:showpageshadow="false"
     showguides="false"
     inkscape:window-width="1855"
     inkscape:window-height="1056"
     inkscape:window-x="65"
     inkscape:window-y="24"
     inkscape:window-maximized="1"
     objecttolerance="10000"
     inkscape:snap-bbox="true"
     guidetolerance="10000"
     inkscape:object-nodes="true"
     fit-margin-top="0"
     fit-margin-left="0"
     fit-margin-right="0"
     fit-margin-bottom="0">
    <inkscape:grid
       type="xygrid"
       id="grid3338"
       spacingx="5.6250001"
       spacingy="5.625"
       empspacing="1"
       originx="-0.37113212"
       originy="-0.37117001" />
  </sodipodi:namedview>
  <metadata
     id="metadata7">
    <rdf:RDF>
      <cc:Work
         rdf:about="">
        <dc:format>image/svg+xml</dc:format>
        <dc:type
           rdf:resource="http://purl.org/dc/dcmitype/StillImage" />
        <dc:title />
      </cc:Work>
    </rdf:RDF>
  </metadata>
  <g
     inkscape:label="Layer 1"
     inkscape:groupmode="layer"
     id="layer1"
     transform="translate(-0.3711321,-901.99108)">
    <path
       style="fill:#c0b840;fill-opacity:1;stroke:#000000;stroke-width:9;stroke-linecap:round;stroke-linejoin:round;stroke-miterlimit:4;stroke-dasharray:none;stroke-opacity:1"
       d="m 145.87114,976.99108 a 70.500002,70.500002 0 0 1 -70.500006,70.50002 70.500002,70.500002 0 0 1 -70.5000019,-70.50002 70.500002,70.500002 0 0 1 70.5000019,-70.5 70.500002,70.500002 0 0 1 70.500006,70.5 z"
       id="path4141"
       inkscape:connector-curvature="0" />
    <g
       style="font-style:normal;font-weight:normal;font-size:102.45903015px;line-height:125%;font-family:sans-serif;letter-spacing:0px;word-spacing:0px;fill:#000000;fill-opacity:1;stroke:none;stroke-width:1px;stroke-linecap:butt;stroke-linejoin:miter;stroke-opacity:1"
       id="text4137">
      <path
         d="m 96.067862,939.49107 0,8.91393 -30.225414,0 -2.868853,20.28689 q 6.045083,-4.40574 13.422133,-4.40574 10.450821,0 16.90574,6.7623 6.557378,6.65984 6.557378,17.41804 0,11.47541 -6.967214,18.75001 -6.967214,7.2746 -17.930331,7.2746 -4.20082,0 -7.786886,-0.9222 -3.483607,-0.9221 -5.840165,-2.1516 -2.254098,-1.332 -4.20082,-3.3811 -1.844262,-2.1517 -2.868853,-3.6886 -0.922131,-1.6393 -1.844262,-3.9959 -0.819672,-2.45898 -1.024591,-3.38111 -0.204918,-0.92214 -0.512295,-2.66394 l 9.016395,0 q 3.17623,12.19265 14.856559,12.19265 7.377051,0 11.577871,-4.5082 4.303279,-4.50822 4.303279,-12.29511 0,-8.09426 -4.303279,-12.70492 -4.303279,-4.71311 -11.577871,-4.71311 -4.20082,0 -7.172132,1.53688 -2.971312,1.43443 -6.147542,5.22541 l -8.299181,0 5.430329,-39.54918 37.500005,0 z"
         style="font-style:normal;font-variant:normal;font-weight:normal;font-stretch:normal;font-family:FreeSans;-inkscape-font-specification:FreeSans"
         id="path4138" />
    </g>
  </g>
</svg>
